Approaching ggplot2 - 16 Example
…
library(readxl)
data <- read_excel("data/data.xlsx",1)
data

# A tibble: 38 × 7
      ID label type      x     y fill   color
   <dbl> <chr> <chr> <dbl> <dbl> <chr>  <chr>
 1     1 墙    qiang   200    50 brown  white
 2     1 墙    qiang   700    50 brown  white
 3     1 墙    qiang   700   600 brown  white
 4     1 墙    qiang   200   600 brown  white
 5     2 房顶  ding     50   600 black  black
 6     2 房顶  ding    450   830 black  black
 7     2 房顶  ding    850   600 black  black
 8     3 门    men     300    50 orange white
 9     3 门    men     450    50 orange white
10     3 门    men     450   350 orange white
# … with 28 more rows
…
16.2 程序包下载量时序图

统计Hadley Wickman主流的程序包 包括：‘tidyverse’,‘ggplot2’,‘dplyr’,‘tidyr’,‘stringr’,‘lubridate’ 统计截止到目前的下载量

Code
library(tidyverse)
library(cranlogs)
data1=cran_downloads(package=c('tidyverse','ggplot2','dplyr','tidyr',
                               'stringr','lubridate'),
                     from = "2012-01-01", 
                     to = "2022-09-30") 
as_tibble(data1)

# A tibble: 23,556 × 3
   date       count package  
   <date>     <dbl> <chr>    
 1 2012-01-01     0 tidyverse
 2 2012-01-02     0 tidyverse
 3 2012-01-03     0 tidyverse
 4 2012-01-04     0 tidyverse
 5 2012-01-05     0 tidyverse
 6 2012-01-06     0 tidyverse
 7 2012-01-07     0 tidyverse
 8 2012-01-08     0 tidyverse
 9 2012-01-09     0 tidyverse
10 2012-01-10     0 tidyverse
# … with 23,546 more rows
…
data_tidy=data1[!(data1$count%in%data_new) & data1$package=="tidyverse",]
as_tibble(data_tidy)

# A tibble: 3,924 × 3
   date       count package  
   <date>     <dbl> <chr>    
 1 2012-01-01     0 tidyverse
 2 2012-01-02     0 tidyverse
 3 2012-01-03     0 tidyverse
 4 2012-01-04     0 tidyverse
 5 2012-01-05     0 tidyverse
 6 2012-01-06     0 tidyverse
 7 2012-01-07     0 tidyverse
 8 2012-01-08     0 tidyverse
 9 2012-01-09     0 tidyverse
10 2012-01-10     0 tidyverse
# … with 3,914 more rows
…
16.4.3 年龄段次数和概率

Code
library(readxl)
data<-read_excel("data/data.xlsx",8)
as_tibble(data)

# A tibble: 144 × 3
   年龄  命中次数  命中率
   <chr> <chr>      <dbl>
 1 28—30 00       0.00738
 2 31—33 00       0.0115 
 3 34—36 00       0.0180 
 4 37—39 00       0.0281 
 5 40—42 00       0.0440 
 6 43—45 00       0.0687 
 7 46—48 00       0.107  
 8 49—51 00       0.168  
 9 52—54 00       0.262  
10 55—57 00       0.410  
# … with 134 more rows
…
16.6 读取shp文件

library(readxl)
data<-read_excel("data/data.xlsx",10)
as_tibble(data)

# A tibble: 367 × 4
   name         lon   lat elevation
   <chr>      <dbl> <dbl>     <dbl>
 1 诸暨       120.   29.7      16.4
 2 昌都地区    96.9  30.1    3433. 
 3 林芝地区    94.4  29.6    3204. 
 4 日喀则地区  88.9  29.3    3896. 
 5 山南地区    91.8  29.2    3605. 
 6 黄山       118.   29.7     193. 
 7 朝阳       120.   41.6     181. 
 8 铜仁地区   109.   27.7     389. 
 9 阿克苏地区  80.3  41.2    1113. 
10 玉树州      97.0  33.0    3895. 
# … with 357 more rows
…
16.7 等值线图

library(readxl)
data<-read_excel("data/data.xlsx",11)
as_tibble(data)

# A tibble: 199 × 16
   st.no   lon   lat   Mon   Tue   Wed   Thu   Fri   Sat   Sun   Jan spring
   <dbl> <dbl> <dbl> <dbl> <dbl> <dbl> <dbl> <dbl> <dbl> <dbl> <dbl>  <dbl>
 1   258 123.   41.7 101.   96.4  94.7  95.7  97.7 104.  102.  122.    98.3
 2   244 115.   38.0 132.  135.  136.  139.  143.  144.  136.  221.   123. 
 3    79 119.   26.1  58.9  58.4  57.1  57.9  59.3  58.1  58.5  68.0   64.8
 4    45 113.   28.2  90.7  89.0  88.6  85.5  88.4  89.5  89.9 149.    80.5
 5   142 117.   36.7 121.  115.  119.  126.  122.  125.  127.  169.   119. 
 6   194 104.   36.1  92.6  90.1  96.2  98.8 102.   95.4  91.7 111.    99.0
 7   288 114.   30.6 102.   96.7  96.6  97.2  98.6 101.  104.  163.    94.8
 8   294  87.6  43.8 109.  107.  113.  112.  110.  106.  106.  203.    93.8
 9    21 116.   39.9 108.  111.  112.  118.  119.  124.  116.  124.   114. 
10    99 127.   45.8  90.6  91.9  91.1  91.8  95.9  95.7  94.5 150.    76.4
# … with 189 more rows, and 4 more variables: summer <dbl>, autumn <dbl>,
#   winter <dbl>, annual <dbl>
…
