Approaching ggplot2 - 15 multiplot
…
15  multiplot

library(easyGgplot2)
library(gridExtra)
library(grid)
library(tidyverse)

15.1 easyGgplot2

remotes::install_github(“kassambara/easyGgplot2”)

df <- ToothGrowth # 自定义框图与中心点图
as_tibble(df)

# A tibble: 60 × 3
     len supp   dose
   <dbl> <fct> <dbl>
 1   4.2 VC      0.5
 2  11.5 VC      0.5
 3   7.3 VC      0.5
 4   5.8 VC      0.5
 5   6.4 VC      0.5
 6  10   VC      0.5
 7  11.2 VC      0.5
 8  11.2 VC      0.5
 9   5.2 VC      0.5
10   7   VC      0.5
# … with 50 more rows
…
15.2 gridExtra

df <- ToothGrowth # 自定义框图与中心点图
as_tibble(df)

# A tibble: 60 × 3
     len supp   dose
   <dbl> <fct> <dbl>
 1   4.2 VC      0.5
 2  11.5 VC      0.5
 3   7.3 VC      0.5
 4   5.8 VC      0.5
 5   6.4 VC      0.5
 6  10   VC      0.5
 7  11.2 VC      0.5
 8  11.2 VC      0.5
 9   5.2 VC      0.5
10   7   VC      0.5
# … with 50 more rows
…
