Approaching ggplot2 - 17 ncov2019
…
dd <- filter(d, time == time(y) & country != '中国') %>% 
  arrange(desc(cum_confirm)) 

dd = dd[1:40, ]
dd$country = factor(dd$country, levels=dd$country)
dd$angle = 1:40 * 360/40
i = dd$angle > 90 & dd$cum_confirm > dd$cum_confirm[21]
dd$angle[i] = dd$angle[i] + 180
dd$vjust = 1
dd$vjust[i] = 0

as_tibble(dd)

# A tibble: 40 × 7
   time       country cum_confirm cum_heal cum_dead angle vjust
   <date>     <fct>         <int>    <int>    <int> <dbl> <dbl>
 1 2021-03-19 美国       30360639 22523803   552475     9     1
 2 2021-03-19 巴西       11787600 10339432   287795    18     1
 3 2021-03-19 印度       11514331 11083679   159405    27     1
 4 2021-03-19 俄罗斯      4437938  4049373    94267    36     1
 5 2021-03-19 英国        4280882  3593136   125926    45     1
 6 2021-03-19 法国        4181607   278263    91679    54     1
 7 2021-03-19 意大利      3306711  2655346   103855    63     1
 8 2021-03-19 西班牙      3212332  2945446    72910    72     1
 9 2021-03-19 土耳其      2950603  2770638    29777    81     1
10 2021-03-19 德国        2636434  2401413    75071    90     1
# … with 30 more rows
…
